…
1)  How many flights have a missing dep\_time? What other variables are
    missing? What might these rows represent?

<!-- end list -->

``` r
flights_cancled <- flights %>%
  filter(is.na(dep_time))

flights_cancled;nrow(flights_cancled)
```

    ## # A tibble: 8,255 x 19
    ##     year month   day dep_time sched_dep_time dep_delay arr_time sched_arr_time
    ##    <int> <int> <int>    <int>          <int>     <dbl>    <int>          <int>
    ##  1  2013     1     1       NA           1630        NA       NA           1815
    ##  2  2013     1     1       NA           1935        NA       NA           2240
    ##  3  2013     1     1       NA           1500        NA       NA           1825
    ##  4  2013     1     1       NA            600        NA       NA            901
    ##  5  2013     1     2       NA           1540        NA       NA           1747
    ##  6  2013     1     2       NA           1620        NA       NA           1746
    ##  7  2013     1     2       NA           1355        NA       NA           1459
    ##  8  2013     1     2       NA           1420        NA       NA           1644
    ##  9  2013     1     2       NA           1321        NA       NA           1536
    ## 10  2013     1     2       NA           1545        NA       NA           1910
    ## # ... with 8,245 more rows, and 11 more variables: arr_delay <dbl>,
    ## #   carrier <chr>, flight <int>, tailnum <chr>, origin <chr>, dest <chr>,
    ## #   air_time <dbl>, distance <dbl>, hour <dbl>, minute <dbl>, time_hour <dttm>
…
<!-- end list -->

``` r
flights_tempt <- select(flights,
                        dep_time,
                        sched_dep_time)

mutate(flights_tempt,
       dep_time = ( 24 * 60 ) - ( (dep_time %/% 100) * 60 + (dep_time %% 100) ),
       sched_dep_time = ( 24 * 60 ) - ( (sched_dep_time %/% 100) * 60 + (sched_dep_time %% 100) )
)
```

    ## # A tibble: 336,776 x 2
    ##    dep_time sched_dep_time
    ##       <dbl>          <dbl>
    ##  1     1123           1125
    ##  2     1107           1111
    ##  3     1098           1100
    ##  4     1096           1095
    ##  5     1086           1080
    ##  6     1086           1082
    ##  7     1085           1080
    ##  8     1083           1080
    ##  9     1083           1080
    ## 10     1082           1080
    ## # ... with 336,766 more rows
…
